<?xml version="1.0" encoding="UTF-8" standalone="no"?>
<!DOCTYPE svg PUBLIC "-//W3C//DTD SVG 1.1//EN"
 "http://www.w3.org/Graphics/SVG/1.1/DTD/svg11.dtd">
<!-- Generated by graphviz version 2.42.3 (0)
 -->
<!-- Title: Motors::~Motors Pages: 1 -->
<svg width="389pt" height="28pt"
 viewBox="0.00 0.00 389.00 28.00" xmlns="http://www.w3.org/2000/svg" xmlns:xlink="http://www.w3.org/1999/xlink">
<g id="graph0" class="graph" transform="scale(1 1) rotate(0) translate(4 24)">
<title>Motors::~Motors</title>
<polygon fill="white" stroke="transparent" points="-4,4 -4,-24 385,-24 385,4 -4,4"/>
<!-- Node1 -->
<g id="node1" class="node">
<title>Node1</title>
<g id="a_node1"><a xlink:title="Destroy the Motors object, and automatticly calls the stop function.">
<polygon fill="#bfbfbf" stroke="black" points="0,-0.5 0,-19.5 98,-19.5 98,-0.5 0,-0.5"/>
<text text-anchor="middle" x="49" y="-7.5" font-family="Helvetica,sans-Serif" font-size="10.00">Motors::~Motors</text>
</a>
</g>
</g>
<!-- Node2 -->
<g id="node2" class="node">
<title>Node2</title>
<g id="a_node2"><a xlink:href="class_motors.html#a453e43aaa11a1f41ebe0164b9eabc1d0" target="_top" xlink:title="stops and disables the motor">
<polygon fill="white" stroke="black" points="134,-0.5 134,-19.5 211,-19.5 211,-0.5 134,-0.5"/>
<text text-anchor="middle" x="172.5" y="-7.5" font-family="Helvetica,sans-Serif" font-size="10.00">Motors::stop</text>
</a>
</g>
</g>
<!-- Node1&#45;&gt;Node2 -->
<g id="edge1" class="edge">
<title>Node1&#45;&gt;Node2</title>
<path fill="none" stroke="midnightblue" d="M98.02,-10C106.51,-10 115.34,-10 123.82,-10"/>
<polygon fill="midnightblue" stroke="midnightblue" points="123.94,-13.5 133.94,-10 123.94,-6.5 123.94,-13.5"/>
</g>
<!-- Node3 -->
<g id="node3" class="node">
<title>Node3</title>
<g id="a_node3"><a xlink:href="class_motors.html#a27581c14d743fa6488284c03c64fe154" target="_top" xlink:title="Directly set the speed for the left and right motor.">
<polygon fill="white" stroke="black" points="247,-0.5 247,-19.5 381,-19.5 381,-0.5 247,-0.5"/>
<text text-anchor="middle" x="314" y="-7.5" font-family="Helvetica,sans-Serif" font-size="10.00">Motors::setMotorsDirect</text>
</a>
</g>
</g>
<!-- Node2&#45;&gt;Node3 -->
<g id="edge2" class="edge">
<title>Node2&#45;&gt;Node3</title>
<path fill="none" stroke="midnightblue" d="M211.25,-10C219.28,-10 228.04,-10 236.93,-10"/>
<polygon fill="midnightblue" stroke="midnightblue" points="237,-13.5 247,-10 237,-6.5 237,-13.5"/>
</g>
</g>
</svg>
