<?xml version="1.0" encoding="UTF-8" standalone="no"?>
<!DOCTYPE svg PUBLIC "-//W3C//DTD SVG 1.1//EN"
 "http://www.w3.org/Graphics/SVG/1.1/DTD/svg11.dtd">
<!-- Generated by graphviz version 2.42.3 (0)
 -->
<!-- Title: Sensors::start Pages: 1 -->
<svg width="256pt" height="66pt"
 viewBox="0.00 0.00 256.00 66.00" xmlns="http://www.w3.org/2000/svg" xmlns:xlink="http://www.w3.org/1999/xlink">
<g id="graph0" class="graph" transform="scale(1 1) rotate(0) translate(4 62)">
<title>Sensors::start</title>
<polygon fill="white" stroke="transparent" points="-4,4 -4,-62 252,-62 252,4 -4,4"/>
<!-- Node1 -->
<g id="node1" class="node">
<title>Node1</title>
<g id="a_node1"><a xlink:title="this starts / enables the component">
<polygon fill="#bfbfbf" stroke="black" points="165,-19.5 165,-38.5 248,-38.5 248,-19.5 165,-19.5"/>
<text text-anchor="middle" x="206.5" y="-26.5" font-family="Helvetica,sans-Serif" font-size="10.00">Sensors::start</text>
</a>
</g>
</g>
<!-- Node2 -->
<g id="node2" class="node">
<title>Node2</title>
<g id="a_node2"><a xlink:href="class_roomba.html#a71676d08589bc2358ee94a6008f6a001" target="_top" xlink:title=" ">
<polygon fill="white" stroke="black" points="0,-38.5 0,-57.5 129,-57.5 129,-38.5 0,-38.5"/>
<text text-anchor="middle" x="64.5" y="-45.5" font-family="Helvetica,sans-Serif" font-size="10.00">Roomba::_roombaLoop</text>
</a>
</g>
</g>
<!-- Node1&#45;&gt;Node2 -->
<g id="edge1" class="edge">
<title>Node1&#45;&gt;Node2</title>
<path fill="none" stroke="midnightblue" d="M154.71,-35.89C146.38,-37.02 137.67,-38.21 129.08,-39.37"/>
<polygon fill="midnightblue" stroke="midnightblue" points="155.19,-39.36 164.63,-34.55 154.25,-32.42 155.19,-39.36"/>
</g>
<!-- Node3 -->
<g id="node3" class="node">
<title>Node3</title>
<g id="a_node3"><a xlink:href="class_sensors.html#a01297c9da9b1f53078a86681f84b4f93" target="_top" xlink:title="Construct a new Sensors object, and automaticly calls the start function.">
<polygon fill="white" stroke="black" points="15,-0.5 15,-19.5 114,-19.5 114,-0.5 15,-0.5"/>
<text text-anchor="middle" x="64.5" y="-7.5" font-family="Helvetica,sans-Serif" font-size="10.00">Sensors::Sensors</text>
</a>
</g>
</g>
<!-- Node1&#45;&gt;Node3 -->
<g id="edge2" class="edge">
<title>Node1&#45;&gt;Node3</title>
<path fill="none" stroke="midnightblue" d="M154.34,-22.06C141.2,-20.27 127.1,-18.36 114.09,-16.59"/>
<polygon fill="midnightblue" stroke="midnightblue" points="154.25,-25.58 164.63,-23.45 155.19,-18.64 154.25,-25.58"/>
</g>
</g>
</svg>
