<?xml version="1.0" encoding="UTF-8" standalone="no"?>
<!DOCTYPE svg PUBLIC "-//W3C//DTD SVG 1.1//EN"
 "http://www.w3.org/Graphics/SVG/1.1/DTD/svg11.dtd">
<!-- Generated by graphviz version 2.42.3 (0)
 -->
<!-- Title: Sensors Pages: 1 -->
<svg width="81pt" height="84pt"
 viewBox="0.00 0.00 81.00 84.00" xmlns="http://www.w3.org/2000/svg" xmlns:xlink="http://www.w3.org/1999/xlink">
<g id="graph0" class="graph" transform="scale(1 1) rotate(0) translate(4 80)">
<title>Sensors</title>
<polygon fill="white" stroke="transparent" points="-4,4 -4,-80 77,-80 77,4 -4,4"/>
<!-- Node1 -->
<g id="node1" class="node">
<title>Node1</title>
<g id="a_node1"><a xlink:title="A class to access sensors of the roomba.">
<polygon fill="#bfbfbf" stroke="black" points="9,-0.5 9,-19.5 64,-19.5 64,-0.5 9,-0.5"/>
<text text-anchor="middle" x="36.5" y="-7.5" font-family="Helvetica,sans-Serif" font-size="10.00">Sensors</text>
</a>
</g>
</g>
<!-- Node2 -->
<g id="node2" class="node">
<title>Node2</title>
<g id="a_node2"><a xlink:href="class_component.html" target="_top" xlink:title="An abstract base component containing basic functionality.">
<polygon fill="white" stroke="black" points="0,-56.5 0,-75.5 73,-75.5 73,-56.5 0,-56.5"/>
<text text-anchor="middle" x="36.5" y="-63.5" font-family="Helvetica,sans-Serif" font-size="10.00">Component</text>
</a>
</g>
</g>
<!-- Node2&#45;&gt;Node1 -->
<g id="edge1" class="edge">
<title>Node2&#45;&gt;Node1</title>
<path fill="none" stroke="#8b1a1a" d="M36.5,-45.8C36.5,-36.91 36.5,-26.78 36.5,-19.75"/>
<polygon fill="#8b1a1a" stroke="#8b1a1a" points="33,-46.08 36.5,-56.08 40,-46.08 33,-46.08"/>
</g>
</g>
</svg>
