<?xml version="1.0" encoding="UTF-8" standalone="no"?>
<!DOCTYPE svg PUBLIC "-//W3C//DTD SVG 1.1//EN"
 "http://www.w3.org/Graphics/SVG/1.1/DTD/svg11.dtd">
<!-- Generated by graphviz version 2.42.3 (0)
 -->
<!-- Title: inc/roomba/component.hpp Pages: 1 -->
<svg width="594pt" height="252pt"
 viewBox="0.00 0.00 594.00 252.00" xmlns="http://www.w3.org/2000/svg" xmlns:xlink="http://www.w3.org/1999/xlink">
<g id="graph0" class="graph" transform="scale(1 1) rotate(0) translate(4 248)">
<title>inc/roomba/component.hpp</title>
<polygon fill="white" stroke="transparent" points="-4,4 -4,-248 590,-248 590,4 -4,4"/>
<!-- Node1 -->
<g id="node1" class="node">
<title>Node1</title>
<g id="a_node1"><a xlink:title=" ">
<polygon fill="#bfbfbf" stroke="black" points="216,-224.5 216,-243.5 366,-243.5 366,-224.5 216,-224.5"/>
<text text-anchor="middle" x="291" y="-231.5" font-family="Helvetica,sans-Serif" font-size="10.00">inc/roomba/component.hpp</text>
</a>
</g>
</g>
<!-- Node2 -->
<g id="node2" class="node">
<title>Node2</title>
<g id="a_node2"><a xlink:href="motors_8hpp.html" target="_top" xlink:title=" ">
<polygon fill="white" stroke="black" points="0,-168.5 0,-187.5 130,-187.5 130,-168.5 0,-168.5"/>
<text text-anchor="middle" x="65" y="-175.5" font-family="Helvetica,sans-Serif" font-size="10.00">inc/roomba/motors.hpp</text>
</a>
</g>
</g>
<!-- Node1&#45;&gt;Node2 -->
<g id="edge1" class="edge">
<title>Node1&#45;&gt;Node2</title>
<path fill="none" stroke="midnightblue" d="M245.33,-222.09C202.64,-211.89 139.75,-196.86 100.64,-187.52"/>
<polygon fill="midnightblue" stroke="midnightblue" points="244.65,-225.52 255.19,-224.44 246.28,-218.72 244.65,-225.52"/>
</g>
<!-- Node6 -->
<g id="node6" class="node">
<title>Node6</title>
<g id="a_node6"><a xlink:href="sensors_8hpp.html" target="_top" xlink:title=" ">
<polygon fill="white" stroke="black" points="148.5,-168.5 148.5,-187.5 281.5,-187.5 281.5,-168.5 148.5,-168.5"/>
<text text-anchor="middle" x="215" y="-175.5" font-family="Helvetica,sans-Serif" font-size="10.00">inc/roomba/sensors.hpp</text>
</a>
</g>
</g>
<!-- Node1&#45;&gt;Node6 -->
<g id="edge5" class="edge">
<title>Node1&#45;&gt;Node6</title>
<path fill="none" stroke="midnightblue" d="M270.42,-218.38C256.69,-208.62 239.07,-196.11 227.43,-187.83"/>
<polygon fill="midnightblue" stroke="midnightblue" points="268.61,-221.38 278.79,-224.32 272.66,-215.68 268.61,-221.38"/>
</g>
<!-- Node7 -->
<g id="node7" class="node">
<title>Node7</title>
<g id="a_node7"><a xlink:href="speaker_8hpp.html" target="_top" xlink:title=" ">
<polygon fill="white" stroke="black" points="300,-168.5 300,-187.5 434,-187.5 434,-168.5 300,-168.5"/>
<text text-anchor="middle" x="367" y="-175.5" font-family="Helvetica,sans-Serif" font-size="10.00">inc/roomba/speaker.hpp</text>
</a>
</g>
</g>
<!-- Node1&#45;&gt;Node7 -->
<g id="edge7" class="edge">
<title>Node1&#45;&gt;Node7</title>
<path fill="none" stroke="midnightblue" d="M311.58,-218.38C325.31,-208.62 342.93,-196.11 354.57,-187.83"/>
<polygon fill="midnightblue" stroke="midnightblue" points="309.34,-215.68 303.21,-224.32 313.39,-221.38 309.34,-215.68"/>
</g>
<!-- Node8 -->
<g id="node8" class="node">
<title>Node8</title>
<g id="a_node8"><a xlink:href="vacuum_8hpp.html" target="_top" xlink:title=" ">
<polygon fill="white" stroke="black" points="452,-168.5 452,-187.5 586,-187.5 586,-168.5 452,-168.5"/>
<text text-anchor="middle" x="519" y="-175.5" font-family="Helvetica,sans-Serif" font-size="10.00">inc/roomba/vacuum.hpp</text>
</a>
</g>
</g>
<!-- Node1&#45;&gt;Node8 -->
<g id="edge9" class="edge">
<title>Node1&#45;&gt;Node8</title>
<path fill="none" stroke="midnightblue" d="M337.07,-222.09C380.15,-211.89 443.59,-196.86 483.04,-187.52"/>
<polygon fill="midnightblue" stroke="midnightblue" points="336.05,-218.73 327.13,-224.44 337.66,-225.54 336.05,-218.73"/>
</g>
<!-- Node3 -->
<g id="node3" class="node">
<title>Node3</title>
<g id="a_node3"><a xlink:href="roomba_8hpp.html" target="_top" xlink:title=" ">
<polygon fill="white" stroke="black" points="224.5,-112.5 224.5,-131.5 357.5,-131.5 357.5,-112.5 224.5,-112.5"/>
<text text-anchor="middle" x="291" y="-119.5" font-family="Helvetica,sans-Serif" font-size="10.00">inc/roomba/roomba.hpp</text>
</a>
</g>
</g>
<!-- Node2&#45;&gt;Node3 -->
<g id="edge2" class="edge">
<title>Node2&#45;&gt;Node3</title>
<path fill="none" stroke="midnightblue" d="M110.67,-166.09C153.36,-155.89 216.25,-140.86 255.36,-131.52"/>
<polygon fill="midnightblue" stroke="midnightblue" points="109.72,-162.72 100.81,-168.44 111.35,-169.52 109.72,-162.72"/>
</g>
<!-- Node4 -->
<g id="node4" class="node">
<title>Node4</title>
<g id="a_node4"><a xlink:href="rpi_8hpp.html" target="_top" xlink:title=" ">
<polygon fill="white" stroke="black" points="257,-56.5 257,-75.5 325,-75.5 325,-56.5 257,-56.5"/>
<text text-anchor="middle" x="291" y="-63.5" font-family="Helvetica,sans-Serif" font-size="10.00">inc/rpi.hpp</text>
</a>
</g>
</g>
<!-- Node3&#45;&gt;Node4 -->
<g id="edge3" class="edge">
<title>Node3&#45;&gt;Node4</title>
<path fill="none" stroke="midnightblue" d="M291,-101.8C291,-92.91 291,-82.78 291,-75.75"/>
<polygon fill="midnightblue" stroke="midnightblue" points="287.5,-102.08 291,-112.08 294.5,-102.08 287.5,-102.08"/>
</g>
<!-- Node5 -->
<g id="node5" class="node">
<title>Node5</title>
<g id="a_node5"><a xlink:href="main_8cpp.html" target="_top" xlink:title=" ">
<polygon fill="white" stroke="black" points="251.5,-0.5 251.5,-19.5 330.5,-19.5 330.5,-0.5 251.5,-0.5"/>
<text text-anchor="middle" x="291" y="-7.5" font-family="Helvetica,sans-Serif" font-size="10.00">src/main.cpp</text>
</a>
</g>
</g>
<!-- Node4&#45;&gt;Node5 -->
<g id="edge4" class="edge">
<title>Node4&#45;&gt;Node5</title>
<path fill="none" stroke="midnightblue" d="M291,-45.8C291,-36.91 291,-26.78 291,-19.75"/>
<polygon fill="midnightblue" stroke="midnightblue" points="287.5,-46.08 291,-56.08 294.5,-46.08 287.5,-46.08"/>
</g>
<!-- Node6&#45;&gt;Node3 -->
<g id="edge6" class="edge">
<title>Node6&#45;&gt;Node3</title>
<path fill="none" stroke="midnightblue" d="M235.58,-162.38C249.31,-152.62 266.93,-140.11 278.57,-131.83"/>
<polygon fill="midnightblue" stroke="midnightblue" points="233.34,-159.68 227.21,-168.32 237.39,-165.38 233.34,-159.68"/>
</g>
<!-- Node7&#45;&gt;Node3 -->
<g id="edge8" class="edge">
<title>Node7&#45;&gt;Node3</title>
<path fill="none" stroke="midnightblue" d="M346.42,-162.38C332.69,-152.62 315.07,-140.11 303.43,-131.83"/>
<polygon fill="midnightblue" stroke="midnightblue" points="344.61,-165.38 354.79,-168.32 348.66,-159.68 344.61,-165.38"/>
</g>
<!-- Node8&#45;&gt;Node3 -->
<g id="edge10" class="edge">
<title>Node8&#45;&gt;Node3</title>
<path fill="none" stroke="midnightblue" d="M472.93,-166.09C429.85,-155.89 366.41,-140.86 326.96,-131.52"/>
<polygon fill="midnightblue" stroke="midnightblue" points="472.34,-169.54 482.87,-168.44 473.95,-162.73 472.34,-169.54"/>
</g>
</g>
</svg>
