<?xml version="1.0" encoding="UTF-8" standalone="no"?>
<!DOCTYPE svg PUBLIC "-//W3C//DTD SVG 1.1//EN"
 "http://www.w3.org/Graphics/SVG/1.1/DTD/svg11.dtd">
<!-- Generated by graphviz version 2.42.3 (0)
 -->
<!-- Title: inc/rpi.hpp Pages: 1 -->
<svg width="1250pt" height="252pt"
 viewBox="0.00 0.00 1249.50 252.00" xmlns="http://www.w3.org/2000/svg" xmlns:xlink="http://www.w3.org/1999/xlink">
<g id="graph0" class="graph" transform="scale(1 1) rotate(0) translate(4 248)">
<title>inc/rpi.hpp</title>
<polygon fill="white" stroke="transparent" points="-4,4 -4,-248 1245.5,-248 1245.5,4 -4,4"/>
<!-- Node1 -->
<g id="node1" class="node">
<title>Node1</title>
<g id="a_node1"><a xlink:title=" ">
<polygon fill="#bfbfbf" stroke="black" points="985.5,-224.5 985.5,-243.5 1053.5,-243.5 1053.5,-224.5 985.5,-224.5"/>
<text text-anchor="middle" x="1019.5" y="-231.5" font-family="Helvetica,sans-Serif" font-size="10.00">inc/rpi.hpp</text>
</a>
</g>
</g>
<!-- Node2 -->
<g id="node2" class="node">
<title>Node2</title>
<g id="a_node2"><a xlink:href="config_8hpp.html" target="_top" xlink:title=" ">
<polygon fill="white" stroke="black" points="1012.5,-112.5 1012.5,-131.5 1080.5,-131.5 1080.5,-112.5 1012.5,-112.5"/>
<text text-anchor="middle" x="1046.5" y="-119.5" font-family="Helvetica,sans-Serif" font-size="10.00">config.hpp</text>
</a>
</g>
</g>
<!-- Node1&#45;&gt;Node2 -->
<g id="edge1" class="edge">
<title>Node1&#45;&gt;Node2</title>
<path fill="none" stroke="midnightblue" d="M996.88,-224.36C971.03,-213.12 934.15,-192.04 949.5,-168 961.29,-149.53 982.84,-138.52 1002.63,-132.03"/>
<polygon fill="midnightblue" stroke="midnightblue" points="1003.87,-135.31 1012.46,-129.11 1001.88,-128.6 1003.87,-135.31"/>
</g>
<!-- Node4 -->
<g id="node4" class="node">
<title>Node4</title>
<g id="a_node4"><a xlink:href="roomba_8hpp.html" target="_top" xlink:title=" ">
<polygon fill="white" stroke="black" points="668.5,-168.5 668.5,-187.5 784.5,-187.5 784.5,-168.5 668.5,-168.5"/>
<text text-anchor="middle" x="726.5" y="-175.5" font-family="Helvetica,sans-Serif" font-size="10.00">roomba/roomba.hpp</text>
</a>
</g>
</g>
<!-- Node1&#45;&gt;Node4 -->
<g id="edge3" class="edge">
<title>Node1&#45;&gt;Node4</title>
<path fill="none" stroke="midnightblue" d="M985.32,-226.7C935.58,-217.53 842.7,-200.42 782.78,-189.37"/>
<polygon fill="midnightblue" stroke="midnightblue" points="783.2,-185.89 772.73,-187.52 781.93,-192.77 783.2,-185.89"/>
</g>
<!-- Node21 -->
<g id="node21" class="node">
<title>Node21</title>
<g id="a_node21"><a xlink:title=" ">
<polygon fill="white" stroke="#bfbfbf" points="958,-168.5 958,-187.5 1081,-187.5 1081,-168.5 958,-168.5"/>
<text text-anchor="middle" x="1019.5" y="-175.5" font-family="Helvetica,sans-Serif" font-size="10.00">CommandProcessor.h</text>
</a>
</g>
</g>
<!-- Node1&#45;&gt;Node21 -->
<g id="edge29" class="edge">
<title>Node1&#45;&gt;Node21</title>
<path fill="none" stroke="midnightblue" d="M1019.5,-224.08C1019.5,-217.01 1019.5,-206.86 1019.5,-197.99"/>
<polygon fill="midnightblue" stroke="midnightblue" points="1023,-197.75 1019.5,-187.75 1016,-197.75 1023,-197.75"/>
</g>
<!-- Node22 -->
<g id="node22" class="node">
<title>Node22</title>
<g id="a_node22"><a xlink:title=" ">
<polygon fill="white" stroke="#bfbfbf" points="1099.5,-168.5 1099.5,-187.5 1173.5,-187.5 1173.5,-168.5 1099.5,-168.5"/>
<text text-anchor="middle" x="1136.5" y="-175.5" font-family="Helvetica,sans-Serif" font-size="10.00">LedMatrix.h</text>
</a>
</g>
</g>
<!-- Node1&#45;&gt;Node22 -->
<g id="edge30" class="edge">
<title>Node1&#45;&gt;Node22</title>
<path fill="none" stroke="midnightblue" d="M1038.04,-224.44C1057.12,-215.64 1087.07,-201.81 1108.94,-191.72"/>
<polygon fill="midnightblue" stroke="midnightblue" points="1110.43,-194.88 1118.05,-187.52 1107.5,-188.53 1110.43,-194.88"/>
</g>
<!-- Node23 -->
<g id="node23" class="node">
<title>Node23</title>
<g id="a_node23"><a xlink:title=" ">
<polygon fill="white" stroke="#bfbfbf" points="1191.5,-168.5 1191.5,-187.5 1241.5,-187.5 1241.5,-168.5 1191.5,-168.5"/>
<text text-anchor="middle" x="1216.5" y="-175.5" font-family="Helvetica,sans-Serif" font-size="10.00">Pixel.h</text>
</a>
</g>
</g>
<!-- Node1&#45;&gt;Node23 -->
<g id="edge31" class="edge">
<title>Node1&#45;&gt;Node23</title>
<path fill="none" stroke="midnightblue" d="M1050.72,-224.44C1086.32,-214.68 1144.38,-198.77 1181.49,-188.6"/>
<polygon fill="midnightblue" stroke="midnightblue" points="1182.65,-191.91 1191.37,-185.89 1180.8,-185.16 1182.65,-191.91"/>
</g>
<!-- Node3 -->
<g id="node3" class="node">
<title>Node3</title>
<g id="a_node3"><a xlink:title=" ">
<polygon fill="white" stroke="#bfbfbf" points="999.5,-56.5 999.5,-75.5 1043.5,-75.5 1043.5,-56.5 999.5,-56.5"/>
<text text-anchor="middle" x="1021.5" y="-63.5" font-family="Helvetica,sans-Serif" font-size="10.00">string</text>
</a>
</g>
</g>
<!-- Node2&#45;&gt;Node3 -->
<g id="edge2" class="edge">
<title>Node2&#45;&gt;Node3</title>
<path fill="none" stroke="midnightblue" d="M1042.37,-112.08C1038.99,-104.77 1034.08,-94.18 1029.88,-85.1"/>
<polygon fill="midnightblue" stroke="midnightblue" points="1032.93,-83.36 1025.55,-75.75 1026.58,-86.3 1032.93,-83.36"/>
</g>
<!-- Node4&#45;&gt;Node2 -->
<g id="edge4" class="edge">
<title>Node4&#45;&gt;Node2</title>
<path fill="none" stroke="midnightblue" d="M779.98,-168.5C834.87,-159.69 922.73,-145.37 998.5,-132 999.77,-131.78 1001.05,-131.55 1002.35,-131.31"/>
<polygon fill="midnightblue" stroke="midnightblue" points="1003.22,-134.72 1012.43,-129.48 1001.96,-127.83 1003.22,-134.72"/>
</g>
<!-- Node4&#45;&gt;Node3 -->
<g id="edge27" class="edge">
<title>Node4&#45;&gt;Node3</title>
<path fill="none" stroke="midnightblue" d="M784.69,-175.71C834.21,-172.38 905.79,-162.14 960.5,-132 981.38,-120.5 999.22,-99.3 1010.11,-84.25"/>
<polygon fill="midnightblue" stroke="midnightblue" points="1013.14,-86.02 1015.97,-75.81 1007.39,-82.03 1013.14,-86.02"/>
</g>
<!-- Node5 -->
<g id="node5" class="node">
<title>Node5</title>
<g id="a_node5"><a xlink:href="motors_8hpp.html" target="_top" xlink:title=" ">
<polygon fill="white" stroke="black" points="0,-112.5 0,-131.5 113,-131.5 113,-112.5 0,-112.5"/>
<text text-anchor="middle" x="56.5" y="-119.5" font-family="Helvetica,sans-Serif" font-size="10.00">roomba/motors.hpp</text>
</a>
</g>
</g>
<!-- Node4&#45;&gt;Node5 -->
<g id="edge5" class="edge">
<title>Node4&#45;&gt;Node5</title>
<path fill="none" stroke="midnightblue" d="M668.41,-173.91C562.22,-167.98 329.46,-153.76 123.3,-132.13"/>
<polygon fill="midnightblue" stroke="midnightblue" points="123.51,-128.64 113.19,-131.07 122.77,-135.6 123.51,-128.64"/>
</g>
<!-- Node7 -->
<g id="node7" class="node">
<title>Node7</title>
<g id="a_node7"><a xlink:title=" ">
<polygon fill="white" stroke="#bfbfbf" points="651,-0.5 651,-19.5 776,-19.5 776,-0.5 651,-0.5"/>
<text text-anchor="middle" x="713.5" y="-7.5" font-family="Helvetica,sans-Serif" font-size="10.00">SerialLink/SerialLink.h</text>
</a>
</g>
</g>
<!-- Node4&#45;&gt;Node7 -->
<g id="edge21" class="edge">
<title>Node4&#45;&gt;Node7</title>
<path fill="none" stroke="midnightblue" d="M784.55,-171.96C837.41,-166.02 909.84,-154.05 927.5,-132 974.83,-72.9 853.78,-37.6 775,-21.5"/>
<polygon fill="midnightblue" stroke="midnightblue" points="775.63,-18.06 765.14,-19.54 774.27,-24.92 775.63,-18.06"/>
</g>
<!-- Node12 -->
<g id="node12" class="node">
<title>Node12</title>
<g id="a_node12"><a xlink:href="sensors_8hpp.html" target="_top" xlink:title=" ">
<polygon fill="white" stroke="black" points="400.5,-112.5 400.5,-131.5 516.5,-131.5 516.5,-112.5 400.5,-112.5"/>
<text text-anchor="middle" x="458.5" y="-119.5" font-family="Helvetica,sans-Serif" font-size="10.00">roomba/sensors.hpp</text>
</a>
</g>
</g>
<!-- Node4&#45;&gt;Node12 -->
<g id="edge12" class="edge">
<title>Node4&#45;&gt;Node12</title>
<path fill="none" stroke="midnightblue" d="M684.03,-168.44C637.09,-158.98 561.42,-143.74 510.85,-133.55"/>
<polygon fill="midnightblue" stroke="midnightblue" points="511.26,-130.06 500.77,-131.52 509.88,-136.92 511.26,-130.06"/>
</g>
<!-- Node13 -->
<g id="node13" class="node">
<title>Node13</title>
<g id="a_node13"><a xlink:href="speaker_8hpp.html" target="_top" xlink:title=" ">
<polygon fill="white" stroke="black" points="266.5,-112.5 266.5,-131.5 382.5,-131.5 382.5,-112.5 266.5,-112.5"/>
<text text-anchor="middle" x="324.5" y="-119.5" font-family="Helvetica,sans-Serif" font-size="10.00">roomba/speaker.hpp</text>
</a>
</g>
</g>
<!-- Node4&#45;&gt;Node13 -->
<g id="edge15" class="edge">
<title>Node4&#45;&gt;Node13</title>
<path fill="none" stroke="midnightblue" d="M668.48,-169.21C595.44,-159.39 470.17,-142.57 392.65,-132.15"/>
<polygon fill="midnightblue" stroke="midnightblue" points="392.88,-128.65 382.51,-130.79 391.95,-135.59 392.88,-128.65"/>
</g>
<!-- Node14 -->
<g id="node14" class="node">
<title>Node14</title>
<g id="a_node14"><a xlink:href="vacuum_8hpp.html" target="_top" xlink:title=" ">
<polygon fill="white" stroke="black" points="131,-112.5 131,-131.5 248,-131.5 248,-112.5 131,-112.5"/>
<text text-anchor="middle" x="189.5" y="-119.5" font-family="Helvetica,sans-Serif" font-size="10.00">roomba/vacuum.hpp</text>
</a>
</g>
</g>
<!-- Node4&#45;&gt;Node14 -->
<g id="edge18" class="edge">
<title>Node4&#45;&gt;Node14</title>
<path fill="none" stroke="midnightblue" d="M668.3,-172.09C581.49,-164.62 412.66,-149.52 258.24,-132.04"/>
<polygon fill="midnightblue" stroke="midnightblue" points="258.42,-128.54 248.09,-130.89 257.63,-135.5 258.42,-128.54"/>
</g>
<!-- Node15 -->
<g id="node15" class="node">
<title>Node15</title>
<g id="a_node15"><a xlink:title=" ">
<polygon fill="white" stroke="#bfbfbf" points="534.5,-112.5 534.5,-131.5 584.5,-131.5 584.5,-112.5 534.5,-112.5"/>
<text text-anchor="middle" x="559.5" y="-119.5" font-family="Helvetica,sans-Serif" font-size="10.00">atomic</text>
</a>
</g>
</g>
<!-- Node4&#45;&gt;Node15 -->
<g id="edge22" class="edge">
<title>Node4&#45;&gt;Node15</title>
<path fill="none" stroke="midnightblue" d="M700.04,-168.44C671.49,-159.21 625.9,-144.47 594.43,-134.29"/>
<polygon fill="midnightblue" stroke="midnightblue" points="595.34,-130.91 584.74,-131.16 593.18,-137.57 595.34,-130.91"/>
</g>
<!-- Node16 -->
<g id="node16" class="node">
<title>Node16</title>
<g id="a_node16"><a xlink:title=" ">
<polygon fill="white" stroke="#bfbfbf" points="602.5,-112.5 602.5,-131.5 652.5,-131.5 652.5,-112.5 602.5,-112.5"/>
<text text-anchor="middle" x="627.5" y="-119.5" font-family="Helvetica,sans-Serif" font-size="10.00">chrono</text>
</a>
</g>
</g>
<!-- Node4&#45;&gt;Node16 -->
<g id="edge23" class="edge">
<title>Node4&#45;&gt;Node16</title>
<path fill="none" stroke="midnightblue" d="M710.59,-168.32C694.86,-159.74 670.56,-146.49 652.29,-136.52"/>
<polygon fill="midnightblue" stroke="midnightblue" points="653.82,-133.37 643.37,-131.65 650.47,-139.52 653.82,-133.37"/>
</g>
<!-- Node17 -->
<g id="node17" class="node">
<title>Node17</title>
<g id="a_node17"><a xlink:title=" ">
<polygon fill="white" stroke="#bfbfbf" points="671,-112.5 671,-131.5 718,-131.5 718,-112.5 671,-112.5"/>
<text text-anchor="middle" x="694.5" y="-119.5" font-family="Helvetica,sans-Serif" font-size="10.00">cmath</text>
</a>
</g>
</g>
<!-- Node4&#45;&gt;Node17 -->
<g id="edge24" class="edge">
<title>Node4&#45;&gt;Node17</title>
<path fill="none" stroke="midnightblue" d="M721.22,-168.08C716.79,-160.61 710.34,-149.72 704.88,-140.52"/>
<polygon fill="midnightblue" stroke="midnightblue" points="707.79,-138.57 699.69,-131.75 701.77,-142.14 707.79,-138.57"/>
</g>
<!-- Node18 -->
<g id="node18" class="node">
<title>Node18</title>
<g id="a_node18"><a xlink:title=" ">
<polygon fill="white" stroke="#bfbfbf" points="736.5,-112.5 736.5,-131.5 780.5,-131.5 780.5,-112.5 736.5,-112.5"/>
<text text-anchor="middle" x="758.5" y="-119.5" font-family="Helvetica,sans-Serif" font-size="10.00">limits</text>
</a>
</g>
</g>
<!-- Node4&#45;&gt;Node18 -->
<g id="edge25" class="edge">
<title>Node4&#45;&gt;Node18</title>
<path fill="none" stroke="midnightblue" d="M731.78,-168.08C736.21,-160.61 742.66,-149.72 748.12,-140.52"/>
<polygon fill="midnightblue" stroke="midnightblue" points="751.23,-142.14 753.31,-131.75 745.21,-138.57 751.23,-142.14"/>
</g>
<!-- Node19 -->
<g id="node19" class="node">
<title>Node19</title>
<g id="a_node19"><a xlink:title=" ">
<polygon fill="white" stroke="#bfbfbf" points="798.5,-112.5 798.5,-131.5 852.5,-131.5 852.5,-112.5 798.5,-112.5"/>
<text text-anchor="middle" x="825.5" y="-119.5" font-family="Helvetica,sans-Serif" font-size="10.00">random</text>
</a>
</g>
</g>
<!-- Node4&#45;&gt;Node19 -->
<g id="edge26" class="edge">
<title>Node4&#45;&gt;Node19</title>
<path fill="none" stroke="midnightblue" d="M742.41,-168.32C758.14,-159.74 782.44,-146.49 800.71,-136.52"/>
<polygon fill="midnightblue" stroke="midnightblue" points="802.53,-139.52 809.63,-131.65 799.18,-133.37 802.53,-139.52"/>
</g>
<!-- Node20 -->
<g id="node20" class="node">
<title>Node20</title>
<g id="a_node20"><a xlink:title=" ">
<polygon fill="white" stroke="#bfbfbf" points="870.5,-112.5 870.5,-131.5 918.5,-131.5 918.5,-112.5 870.5,-112.5"/>
<text text-anchor="middle" x="894.5" y="-119.5" font-family="Helvetica,sans-Serif" font-size="10.00">thread</text>
</a>
</g>
</g>
<!-- Node4&#45;&gt;Node20 -->
<g id="edge28" class="edge">
<title>Node4&#45;&gt;Node20</title>
<path fill="none" stroke="midnightblue" d="M753.12,-168.44C782.26,-159.08 829.04,-144.04 860.73,-133.85"/>
<polygon fill="midnightblue" stroke="midnightblue" points="862,-137.12 870.45,-130.73 859.86,-130.46 862,-137.12"/>
</g>
<!-- Node6 -->
<g id="node6" class="node">
<title>Node6</title>
<g id="a_node6"><a xlink:href="component_8hpp.html" target="_top" xlink:title=" ">
<polygon fill="white" stroke="black" points="270,-56.5 270,-75.5 403,-75.5 403,-56.5 270,-56.5"/>
<text text-anchor="middle" x="336.5" y="-63.5" font-family="Helvetica,sans-Serif" font-size="10.00">roomba/component.hpp</text>
</a>
</g>
</g>
<!-- Node5&#45;&gt;Node6 -->
<g id="edge6" class="edge">
<title>Node5&#45;&gt;Node6</title>
<path fill="none" stroke="midnightblue" d="M100.87,-112.44C150.12,-102.94 229.63,-87.61 282.47,-77.42"/>
<polygon fill="midnightblue" stroke="midnightblue" points="283.18,-80.85 292.34,-75.52 281.86,-73.97 283.18,-80.85"/>
</g>
<!-- Node10 -->
<g id="node10" class="node">
<title>Node10</title>
<g id="a_node10"><a xlink:href="serial__commands_8hpp.html" target="_top" xlink:title=" ">
<polygon fill="white" stroke="black" points="127.5,-56.5 127.5,-75.5 251.5,-75.5 251.5,-56.5 127.5,-56.5"/>
<text text-anchor="middle" x="189.5" y="-63.5" font-family="Helvetica,sans-Serif" font-size="10.00">serial_commands.hpp</text>
</a>
</g>
</g>
<!-- Node5&#45;&gt;Node10 -->
<g id="edge10" class="edge">
<title>Node5&#45;&gt;Node10</title>
<path fill="none" stroke="midnightblue" d="M77.57,-112.44C99.56,-103.52 134.23,-89.44 159.16,-79.32"/>
<polygon fill="midnightblue" stroke="midnightblue" points="160.58,-82.52 168.52,-75.52 157.94,-76.04 160.58,-82.52"/>
</g>
<!-- Node6&#45;&gt;Node7 -->
<g id="edge7" class="edge">
<title>Node6&#45;&gt;Node7</title>
<path fill="none" stroke="midnightblue" d="M396.24,-56.44C463.52,-46.81 572.73,-31.16 643.84,-20.98"/>
<polygon fill="midnightblue" stroke="midnightblue" points="644.64,-24.4 654.04,-19.52 643.65,-17.47 644.64,-24.4"/>
</g>
<!-- Node8 -->
<g id="node8" class="node">
<title>Node8</title>
<g id="a_node8"><a xlink:title=" ">
<polygon fill="white" stroke="#bfbfbf" points="269,-0.5 269,-19.5 334,-19.5 334,-0.5 269,-0.5"/>
<text text-anchor="middle" x="301.5" y="-7.5" font-family="Helvetica,sans-Serif" font-size="10.00">stdexcept</text>
</a>
</g>
</g>
<!-- Node6&#45;&gt;Node8 -->
<g id="edge8" class="edge">
<title>Node6&#45;&gt;Node8</title>
<path fill="none" stroke="midnightblue" d="M330.72,-56.08C325.83,-48.53 318.67,-37.49 312.67,-28.23"/>
<polygon fill="midnightblue" stroke="midnightblue" points="315.55,-26.24 307.17,-19.75 309.67,-30.05 315.55,-26.24"/>
</g>
<!-- Node9 -->
<g id="node9" class="node">
<title>Node9</title>
<g id="a_node9"><a xlink:title=" ">
<polygon fill="white" stroke="#bfbfbf" points="352,-0.5 352,-19.5 399,-19.5 399,-0.5 352,-0.5"/>
<text text-anchor="middle" x="375.5" y="-7.5" font-family="Helvetica,sans-Serif" font-size="10.00">vector</text>
</a>
</g>
</g>
<!-- Node6&#45;&gt;Node9 -->
<g id="edge9" class="edge">
<title>Node6&#45;&gt;Node9</title>
<path fill="none" stroke="midnightblue" d="M342.94,-56.08C348.45,-48.46 356.53,-37.26 363.26,-27.94"/>
<polygon fill="midnightblue" stroke="midnightblue" points="366.16,-29.91 369.18,-19.75 360.49,-25.81 366.16,-29.91"/>
</g>
<!-- Node11 -->
<g id="node11" class="node">
<title>Node11</title>
<g id="a_node11"><a xlink:title=" ">
<polygon fill="white" stroke="#bfbfbf" points="164.5,-0.5 164.5,-19.5 214.5,-19.5 214.5,-0.5 164.5,-0.5"/>
<text text-anchor="middle" x="189.5" y="-7.5" font-family="Helvetica,sans-Serif" font-size="10.00">cstdint</text>
</a>
</g>
</g>
<!-- Node10&#45;&gt;Node11 -->
<g id="edge11" class="edge">
<title>Node10&#45;&gt;Node11</title>
<path fill="none" stroke="midnightblue" d="M189.5,-56.08C189.5,-49.01 189.5,-38.86 189.5,-29.99"/>
<polygon fill="midnightblue" stroke="midnightblue" points="193,-29.75 189.5,-19.75 186,-29.75 193,-29.75"/>
</g>
<!-- Node12&#45;&gt;Node6 -->
<g id="edge13" class="edge">
<title>Node12&#45;&gt;Node6</title>
<path fill="none" stroke="midnightblue" d="M439.17,-112.44C419.18,-103.6 387.76,-89.69 364.94,-79.59"/>
<polygon fill="midnightblue" stroke="midnightblue" points="366.3,-76.36 355.74,-75.52 363.47,-82.76 366.3,-76.36"/>
</g>
<!-- Node12&#45;&gt;Node10 -->
<g id="edge14" class="edge">
<title>Node12&#45;&gt;Node10</title>
<path fill="none" stroke="midnightblue" d="M415.88,-112.44C368.75,-102.98 292.81,-87.74 242.04,-77.55"/>
<polygon fill="midnightblue" stroke="midnightblue" points="242.42,-74.05 231.92,-75.52 241.04,-80.92 242.42,-74.05"/>
</g>
<!-- Node13&#45;&gt;Node6 -->
<g id="edge16" class="edge">
<title>Node13&#45;&gt;Node6</title>
<path fill="none" stroke="midnightblue" d="M326.48,-112.08C328.07,-104.93 330.36,-94.64 332.35,-85.69"/>
<polygon fill="midnightblue" stroke="midnightblue" points="335.8,-86.27 334.56,-75.75 328.97,-84.75 335.8,-86.27"/>
</g>
<!-- Node13&#45;&gt;Node10 -->
<g id="edge17" class="edge">
<title>Node13&#45;&gt;Node10</title>
<path fill="none" stroke="midnightblue" d="M303.11,-112.44C280.79,-103.52 245.6,-89.44 220.29,-79.32"/>
<polygon fill="midnightblue" stroke="midnightblue" points="221.38,-75.98 210.79,-75.52 218.78,-82.48 221.38,-75.98"/>
</g>
<!-- Node14&#45;&gt;Node6 -->
<g id="edge19" class="edge">
<title>Node14&#45;&gt;Node6</title>
<path fill="none" stroke="midnightblue" d="M212.79,-112.44C237.31,-103.44 276.1,-89.19 303.7,-79.05"/>
<polygon fill="midnightblue" stroke="midnightblue" points="305.14,-82.25 313.32,-75.52 302.72,-75.68 305.14,-82.25"/>
</g>
<!-- Node14&#45;&gt;Node10 -->
<g id="edge20" class="edge">
<title>Node14&#45;&gt;Node10</title>
<path fill="none" stroke="midnightblue" d="M189.5,-112.08C189.5,-105.01 189.5,-94.86 189.5,-85.99"/>
<polygon fill="midnightblue" stroke="midnightblue" points="193,-85.75 189.5,-75.75 186,-85.75 193,-85.75"/>
</g>
</g>
</svg>
